^C:\USERS\MATEI\SOURCE\REPOS\PRODUCTS\PRODUCTS\DEBUG\PRODUCT.OBJ|C:\USERS\MATEI\SOURCE\REPOS\PRODUCTS\PRODUCTS\DEBUG\SOURCE.OBJ
C:\USERS\MATEI\SOURCE\REPOS\PRODUCTS\DEBUG\PRODUCTS.ILK
C:\USERS\MATEI\SOURCE\REPOS\PRODUCTS\DEBUG\PRODUCTS.EXE
C:\USERS\MATEI\SOURCE\REPOS\PRODUCTS\DEBUG\PRODUCTS.PDB
